…
test_df

## # A tibble: 1,000,000 x 12
##    GlobalRank TldRank Domain   TLD   RefSubNets RefIPs IDN_Domain  IDN_TLD
##         <int>   <int> <chr>    <chr>      <int>  <int> <chr>       <chr>  
##  1          1       1 google.~ com       463232 2.96e6 google.com  com    
##  2          2       2 faceboo~ com       451237 3.05e6 facebook.c~ com    
##  3          3       3 youtube~ com       410764 2.44e6 youtube.com com    
##  4          4       4 twitter~ com       409068 2.55e6 twitter.com com    
##  5          5       5 microso~ com       303679 1.14e6 microsoft.~ com    
##  6          6       6 linkedi~ com       292966 1.35e6 linkedin.c~ com    
##  7          7       1 wikiped~ org       287420 1.24e6 wikipedia.~ org    
##  8          8       7 plus.go~ com       284103 1.46e6 plus.googl~ com    
##  9          9       8 instagr~ com       277145 1.37e6 instagram.~ com    
## 10         10       9 apple.c~ com       276152 1.05e6 apple.com   com    
## # ... with 999,990 more rows, and 4 more variables: PrevGlobalRank <int>,
## #   PrevTldRank <int>, PrevRefSubNets <int>, PrevRefIPs <int>

write_csv(test_df, path)

Small

small_df <- test_df %>% 
  slice(1:200)

small_df

## # A tibble: 200 x 12
##    GlobalRank TldRank Domain   TLD   RefSubNets RefIPs IDN_Domain  IDN_TLD
##         <int>   <int> <chr>    <chr>      <int>  <int> <chr>       <chr>  
##  1          1       1 google.~ com       463232 2.96e6 google.com  com    
##  2          2       2 faceboo~ com       451237 3.05e6 facebook.c~ com    
##  3          3       3 youtube~ com       410764 2.44e6 youtube.com com    
##  4          4       4 twitter~ com       409068 2.55e6 twitter.com com    
##  5          5       5 microso~ com       303679 1.14e6 microsoft.~ com    
##  6          6       6 linkedi~ com       292966 1.35e6 linkedin.c~ com    
##  7          7       1 wikiped~ org       287420 1.24e6 wikipedia.~ org    
##  8          8       7 plus.go~ com       284103 1.46e6 plus.googl~ com    
##  9          9       8 instagr~ com       277145 1.37e6 instagram.~ com    
## 10         10       9 apple.c~ com       276152 1.05e6 apple.com   com    
## # ... with 190 more rows, and 4 more variables: PrevGlobalRank <int>,
## #   PrevTldRank <int>, PrevRefSubNets <int>, PrevRefIPs <int>

small_rows <- nrow(small_df)

path_small_csv <- "test-data/small_csv.csv"
write_csv(small_df, path_small_csv)

Medium

medium_df <- test_df %>% 
  slice(1:2000)

medium_df

## # A tibble: 2,000 x 12
##    GlobalRank TldRank Domain   TLD   RefSubNets RefIPs IDN_Domain  IDN_TLD
##         <int>   <int> <chr>    <chr>      <int>  <int> <chr>       <chr>  
##  1          1       1 google.~ com       463232 2.96e6 google.com  com    
##  2          2       2 faceboo~ com       451237 3.05e6 facebook.c~ com    
##  3          3       3 youtube~ com       410764 2.44e6 youtube.com com    
##  4          4       4 twitter~ com       409068 2.55e6 twitter.com com    
##  5          5       5 microso~ com       303679 1.14e6 microsoft.~ com    
##  6          6       6 linkedi~ com       292966 1.35e6 linkedin.c~ com    
##  7          7       1 wikiped~ org       287420 1.24e6 wikipedia.~ org    
##  8          8       7 plus.go~ com       284103 1.46e6 plus.googl~ com    
##  9          9       8 instagr~ com       277145 1.37e6 instagram.~ com    
## 10         10       9 apple.c~ com       276152 1.05e6 apple.com   com    
## # ... with 1,990 more rows, and 4 more variables: PrevGlobalRank <int>,
## #   PrevTldRank <int>, PrevRefSubNets <int>, PrevRefIPs <int>

med_rows <- nrow(medium_df)

path_medium_csv <- "test-data/medium_csv.csv"
write_csv(medium_df, path_medium_csv)

Big

big_df <- bind_rows(test_df, test_df, test_df, test_df)

big_df

## # A tibble: 4,000,000 x 12
##    GlobalRank TldRank Domain   TLD   RefSubNets RefIPs IDN_Domain  IDN_TLD
##         <int>   <int> <chr>    <chr>      <int>  <int> <chr>       <chr>  
##  1          1       1 google.~ com       463232 2.96e6 google.com  com    
##  2          2       2 faceboo~ com       451237 3.05e6 facebook.c~ com    
##  3          3       3 youtube~ com       410764 2.44e6 youtube.com com    
##  4          4       4 twitter~ com       409068 2.55e6 twitter.com com    
##  5          5       5 microso~ com       303679 1.14e6 microsoft.~ com    
##  6          6       6 linkedi~ com       292966 1.35e6 linkedin.c~ com    
##  7          7       1 wikiped~ org       287420 1.24e6 wikipedia.~ org    
##  8          8       7 plus.go~ com       284103 1.46e6 plus.googl~ com    
##  9          9       8 instagr~ com       277145 1.37e6 instagram.~ com    
## 10         10       9 apple.c~ com       276152 1.05e6 apple.com   com    
## # ... with 3,999,990 more rows, and 4 more variables:
## #   PrevGlobalRank <int>, PrevTldRank <int>, PrevRefSubNets <int>,
## #   PrevRefIPs <int>
…
